{
  "project_info": {
    "project_number": "1010591879840",
    "firebase_url": "https://realtimechat-e85d4.firebaseio.com",
    "project_id": "realtimechat-e85d4",
    "storage_bucket": "realtimechat-e85d4.appspot.com"
  },
  "client": [
    {
      "client_info": {
        "mobilesdk_app_id": "1:1010591879840:android:b2fac918fa6f0f97",
        "android_client_info": {
          "package_name": "com.example.kurniadiaw.realtimechatfirebase"
        }
      },
      "oauth_client": [
        {
          "client_id": "1010591879840-g0laq0709kbteqhjfho08bud9c8ppbkb.apps.googleusercontent.com",
          "client_type": 3
        }
      ],
      "api_key": [
        {
          "current_key": "AIzaSyBJwnmNF9Trddl4_phX4TRahrF_YMI2P2s"
        }
      ],
      "services": {
        "analytics_service": {
          "status": 1
        },
        "appinvite_service": {
          "status": 1,
          "other_platform_oauth_client": []
        },
        "ads_service": {
          "status": 2
        }
      }
    }
  ],
  "configuration_version": "1"
}